<?xml version="1.0" encoding="UTF-8" standalone="no"?>
<!-- Created with Inkscape (http://www.inkscape.org/) -->

<svg
   width="100.38799mm"
   height="31.074392mm"
   viewBox="0 0 100.38799 31.074392"
   version="1.1"
   id="svg5"
   inkscape:version="1.2.2 (732a01da63, 2022-12-09)"
   sodipodi:docname="chuas_circuit.svg"
   xmlns:inkscape="http://www.inkscape.org/namespaces/inkscape"
   xmlns:sodipodi="http://sodipodi.sourceforge.net/DTD/sodipodi-0.dtd"
   xmlns="http://www.w3.org/2000/svg"
   xmlns:svg="http://www.w3.org/2000/svg">
  <sodipodi:namedview
     id="namedview7"
     pagecolor="#ffffff"
     bordercolor="#666666"
     borderopacity="1.0"
     inkscape:showpageshadow="2"
     inkscape:pageopacity="0.0"
     inkscape:pagecheckerboard="0"
     inkscape:deskcolor="#d1d1d1"
     inkscape:document-units="mm"
     showgrid="true"
     inkscape:zoom="4"
     inkscape:cx="133.25"
     inkscape:cy="41.25"
     inkscape:window-width="2560"
     inkscape:window-height="1009"
     inkscape:window-x="-8"
     inkscape:window-y="-8"
     inkscape:window-maximized="1"
     inkscape:current-layer="layer1">
    <inkscape:grid
       type="xygrid"
       id="grid132"
       units="mm"
       spacingx="1"
       spacingy="1"
       originx="1.405546"
       originy="-24.775607" />
  </sodipodi:namedview>
  <defs
     id="defs2">
    <marker
       style="overflow:visible"
       id="TriangleStart"
       refX="0"
       refY="0"
       orient="auto-start-reverse"
       inkscape:stockid="TriangleStart"
       markerWidth="7"
       markerHeight="5"
       viewBox="0 0 5.3244081 6.1553851"
       inkscape:isstock="true"
       inkscape:collect="always"
       preserveAspectRatio="none">
      <path
         transform="scale(0.5)"
         style="fill:context-stroke;fill-rule:evenodd;stroke:context-stroke;stroke-width:1pt"
         d="M 5.77,0 -2.88,5 V -5 Z"
         id="path135" />
    </marker>
    <marker
       style="overflow:visible"
       id="Dot"
       refX="0"
       refY="0"
       orient="auto"
       inkscape:stockid="Dot"
       markerWidth="5.6666665"
       markerHeight="5.6666665"
       viewBox="0 0 5.6666667 5.6666667"
       inkscape:isstock="true"
       inkscape:collect="always"
       preserveAspectRatio="xMidYMid">
      <path
         transform="scale(0.5)"
         style="fill:context-stroke;fill-rule:evenodd;stroke:context-stroke;stroke-width:1pt"
         d="M 5,0 C 5,2.76 2.76,5 0,5 -2.76,5 -5,2.76 -5,0 c 0,-2.76 2.3,-5 5,-5 2.76,0 5,2.24 5,5 z"
         id="Dot1"
         sodipodi:nodetypes="sssss" />
    </marker>
    <marker
       style="overflow:visible"
       id="TriangleStart-1"
       refX="0"
       refY="0"
       orient="auto-start-reverse"
       inkscape:stockid="TriangleStart"
       markerWidth="7"
       markerHeight="5"
       viewBox="0 0 5.3244081 6.1553851"
       inkscape:isstock="true"
       inkscape:collect="always"
       preserveAspectRatio="none">
      <path
         transform="scale(0.5)"
         style="fill:context-stroke;fill-rule:evenodd;stroke:context-stroke;stroke-width:1pt"
         d="M 5.77,0 -2.88,5 V -5 Z"
         id="path135-2" />
    </marker>
    <marker
       style="overflow:visible"
       id="TriangleStart-0"
       refX="0"
       refY="0"
       orient="auto-start-reverse"
       inkscape:stockid="TriangleStart"
       markerWidth="7"
       markerHeight="5"
       viewBox="0 0 5.3244081 6.1553851"
       inkscape:isstock="true"
       inkscape:collect="always"
       preserveAspectRatio="none">
      <path
         transform="scale(0.5)"
         style="fill:context-stroke;fill-rule:evenodd;stroke:context-stroke;stroke-width:1pt"
         d="M 5.77,0 -2.88,5 V -5 Z"
         id="path135-7" />
    </marker>
    <marker
       style="overflow:visible"
       id="TriangleStart-0-6"
       refX="0"
       refY="0"
       orient="auto-start-reverse"
       inkscape:stockid="TriangleStart"
       markerWidth="7"
       markerHeight="5"
       viewBox="0 0 5.3244081 6.1553851"
       inkscape:isstock="true"
       inkscape:collect="always"
       preserveAspectRatio="none">
      <path
         transform="scale(0.5)"
         style="fill:context-stroke;fill-rule:evenodd;stroke:context-stroke;stroke-width:1pt"
         d="M 5.77,0 -2.88,5 V -5 Z"
         id="path135-7-1" />
    </marker>
    <marker
       style="overflow:visible"
       id="TriangleStart-1-0"
       refX="0"
       refY="0"
       orient="auto-start-reverse"
       inkscape:stockid="TriangleStart"
       markerWidth="7"
       markerHeight="5"
       viewBox="0 0 5.3244081 6.1553851"
       inkscape:isstock="true"
       inkscape:collect="always"
       preserveAspectRatio="none">
      <path
         transform="scale(0.5)"
         style="fill:context-stroke;fill-rule:evenodd;stroke:context-stroke;stroke-width:1pt"
         d="M 5.77,0 -2.88,5 V -5 Z"
         id="path135-2-0" />
    </marker>
    <marker
       style="overflow:visible"
       id="TriangleStart-1-4"
       refX="0"
       refY="0"
       orient="auto-start-reverse"
       inkscape:stockid="TriangleStart"
       markerWidth="7"
       markerHeight="5"
       viewBox="0 0 5.3244081 6.1553851"
       inkscape:isstock="true"
       inkscape:collect="always"
       preserveAspectRatio="none">
      <path
         transform="scale(0.5)"
         style="fill:context-stroke;fill-rule:evenodd;stroke:context-stroke;stroke-width:1pt"
         d="M 5.77,0 -2.88,5 V -5 Z"
         id="path135-2-3" />
    </marker>
    <marker
       style="overflow:visible"
       id="TriangleStart-1-0-3"
       refX="0"
       refY="0"
       orient="auto-start-reverse"
       inkscape:stockid="TriangleStart"
       markerWidth="7"
       markerHeight="5"
       viewBox="0 0 5.3244081 6.1553851"
       inkscape:isstock="true"
       inkscape:collect="always"
       preserveAspectRatio="none">
      <path
         transform="scale(0.5)"
         style="fill:context-stroke;fill-rule:evenodd;stroke:context-stroke;stroke-width:1pt"
         d="M 5.77,0 -2.88,5 V -5 Z"
         id="path135-2-0-3" />
    </marker>
    <marker
       style="overflow:visible"
       id="TriangleStart-1-0-8"
       refX="0"
       refY="0"
       orient="auto-start-reverse"
       inkscape:stockid="TriangleStart"
       markerWidth="7"
       markerHeight="5"
       viewBox="0 0 5.3244081 6.1553851"
       inkscape:isstock="true"
       inkscape:collect="always"
       preserveAspectRatio="none">
      <path
         transform="scale(0.5)"
         style="fill:context-stroke;fill-rule:evenodd;stroke:context-stroke;stroke-width:1pt"
         d="M 5.77,0 -2.88,5 V -5 Z"
         id="path135-2-0-5" />
    </marker>
    <marker
       style="overflow:visible"
       id="TriangleStart-0-6-7"
       refX="0"
       refY="0"
       orient="auto-start-reverse"
       inkscape:stockid="TriangleStart"
       markerWidth="7"
       markerHeight="5"
       viewBox="0 0 5.3244081 6.1553851"
       inkscape:isstock="true"
       inkscape:collect="always"
       preserveAspectRatio="none">
      <path
         transform="scale(0.5)"
         style="fill:context-stroke;fill-rule:evenodd;stroke:context-stroke;stroke-width:1pt"
         d="M 5.77,0 -2.88,5 V -5 Z"
         id="path135-7-1-2" />
    </marker>
    <marker
       style="overflow:visible"
       id="TriangleStart-0-3"
       refX="0"
       refY="0"
       orient="auto-start-reverse"
       inkscape:stockid="TriangleStart"
       markerWidth="7"
       markerHeight="5"
       viewBox="0 0 5.3244081 6.1553851"
       inkscape:isstock="true"
       inkscape:collect="always"
       preserveAspectRatio="none">
      <path
         transform="scale(0.5)"
         style="fill:context-stroke;fill-rule:evenodd;stroke:context-stroke;stroke-width:1pt"
         d="M 5.77,0 -2.88,5 V -5 Z"
         id="path135-7-3" />
    </marker>
    <marker
       style="overflow:visible"
       id="TriangleStart-1-4-5"
       refX="0"
       refY="0"
       orient="auto-start-reverse"
       inkscape:stockid="TriangleStart"
       markerWidth="7"
       markerHeight="5"
       viewBox="0 0 5.3244081 6.1553851"
       inkscape:isstock="true"
       inkscape:collect="always"
       preserveAspectRatio="none">
      <path
         transform="scale(0.5)"
         style="fill:context-stroke;fill-rule:evenodd;stroke:context-stroke;stroke-width:1pt"
         d="M 5.77,0 -2.88,5 V -5 Z"
         id="path135-2-3-0" />
    </marker>
    <marker
       style="overflow:visible"
       id="TriangleStart-1-4-6"
       refX="0"
       refY="0"
       orient="auto-start-reverse"
       inkscape:stockid="TriangleStart"
       markerWidth="7"
       markerHeight="5"
       viewBox="0 0 5.3244081 6.1553851"
       inkscape:isstock="true"
       inkscape:collect="always"
       preserveAspectRatio="none">
      <path
         transform="scale(0.5)"
         style="fill:context-stroke;fill-rule:evenodd;stroke:context-stroke;stroke-width:1pt"
         d="M 5.77,0 -2.88,5 V -5 Z"
         id="path135-2-3-1" />
    </marker>
  </defs>
  <g
     inkscape:label="Warstwa 1"
     inkscape:groupmode="layer"
     id="layer1"
     transform="translate(1.4055461,-24.775608)">
    <path
       style="fill:none;stroke:#1d1d1b;stroke-width:0.3;stroke-linecap:square;stroke-dasharray:none"
       id="path792-2"
       sodipodi:type="arc"
       sodipodi:cx="4.9987679"
       sodipodi:cy="37.5"
       sodipodi:rx="2.5"
       sodipodi:ry="2.5"
       sodipodi:start="4.7128818"
       sodipodi:end="1.5835121"
       sodipodi:arc-type="arc"
       d="m 4.9999999,35 a 2.5,2.5 0 0 1 2.1695178,1.259901 2.5,2.5 0 0 1 -0.016569,2.508761 2.5,2.5 0 0 1 -2.1859695,1.231136"
       sodipodi:open="true" />
    <path
       style="fill:none;stroke:#1d1d1b;stroke-width:0.3;stroke-linecap:square;stroke-dasharray:none;marker-end:url(#TriangleStart-1-0)"
       id="path792-2-2"
       sodipodi:type="arc"
       sodipodi:cx="17.350092"
       sodipodi:cy="43.349998"
       sodipodi:rx="4"
       sodipodi:ry="4"
       sodipodi:start="2.2310106"
       sodipodi:end="0.86817166"
       sodipodi:arc-type="arc"
       d="m 14.896947,46.509442 a 4,4 0 0 1 -1.34442,-4.415828 4,4 0 0 1 3.712751,-2.742716 4,4 0 0 1 3.825696,2.582837 4,4 0 0 1 -1.15599,4.468858"
       sodipodi:open="true" />
    <path
       style="fill:none;stroke:#1d1d1b;stroke-width:0.3;stroke-linecap:square;stroke-dasharray:none"
       id="path792-4"
       sodipodi:type="arc"
       sodipodi:cx="4.9987679"
       sodipodi:cy="42.5"
       sodipodi:rx="2.5"
       sodipodi:ry="2.5"
       sodipodi:start="4.7128818"
       sodipodi:end="1.5835121"
       sodipodi:arc-type="arc"
       d="m 4.9999999,40 a 2.5,2.5 0 0 1 2.1695178,1.259901 2.5,2.5 0 0 1 -0.016569,2.508761 2.5,2.5 0 0 1 -2.1859695,1.231136"
       sodipodi:open="true" />
    <path
       style="fill:none;stroke:#1d1d1b;stroke-width:0.3;stroke-linecap:square;stroke-dasharray:none"
       id="path792-2-0"
       sodipodi:type="arc"
       sodipodi:cx="4.9657459"
       sodipodi:cy="47.499798"
       sodipodi:rx="2.5"
       sodipodi:ry="2.5"
       sodipodi:start="4.7128818"
       sodipodi:end="1.5503385"
       sodipodi:arc-type="arc"
       d="m 4.966978,44.999798 a 2.5,2.5 0 0 1 2.4986434,2.475044 2.5,2.5 0 0 1 -2.4487345,2.524433"
       sodipodi:open="true" />
    <path
       style="fill:none;stroke:#000000;stroke-width:0.3;stroke-linecap:square;stroke-linejoin:miter;stroke-dasharray:none;stroke-opacity:1"
       d="M 5,35 V 30"
       id="path1792" />
    <path
       style="fill:none;stroke:#000000;stroke-width:0.3;stroke-linecap:square;stroke-linejoin:miter;stroke-dasharray:none;stroke-opacity:1"
       d="M 40,30 H 5"
       id="path1792-7"
       sodipodi:nodetypes="cc" />
    <path
       style="fill:none;stroke:#000000;stroke-width:0.3;stroke-linecap:square;stroke-linejoin:miter;stroke-dasharray:none;stroke-opacity:1;marker-end:url(#TriangleStart)"
       d="m 17,30 v 0"
       id="path1792-7-3"
       sodipodi:nodetypes="cc" />
    <path
       style="fill:none;stroke:#000000;stroke-width:0.3;stroke-linecap:square;stroke-linejoin:miter;stroke-dasharray:none;stroke-opacity:1"
       d="m 90,50 v 5 H 5"
       id="path1792-7-9"
       sodipodi:nodetypes="ccc" />
    <path
       style="fill:none;stroke:#000000;stroke-width:0.3;stroke-linecap:square;stroke-linejoin:miter;stroke-miterlimit:3;stroke-dasharray:none;stroke-opacity:1;marker-end:url(#Dot)"
       d="M 30,40 V 30"
       id="path1792-3"
       sodipodi:nodetypes="cc" />
    <path
       style="fill:none;stroke:#000000;stroke-width:0.3;stroke-linecap:square;stroke-linejoin:miter;stroke-dasharray:none;stroke-opacity:1"
       d="M 90,35 V 30 H 55"
       id="path1792-3-6"
       sodipodi:nodetypes="ccc" />
    <path
       style="fill:none;stroke:#000000;stroke-width:0.3;stroke-linecap:square;stroke-linejoin:miter;stroke-dasharray:none;stroke-opacity:1;marker-start:url(#Dot)"
       d="M 30,55 V 45"
       id="path1792-3-2"
       sodipodi:nodetypes="cc" />
    <path
       style="fill:none;stroke:#000000;stroke-width:0.264583px;stroke-linecap:square;stroke-linejoin:miter;stroke-opacity:1"
       d="M 5,55 V 50"
       id="path1794" />
    <rect
       style="fill:#1d1d1b;fill-opacity:1;stroke:#1d1d1b;stroke-width:0.3;stroke-linecap:square;stroke-dasharray:none"
       id="rect1848"
       width="10"
       height="2"
       x="25"
       y="40" />
    <rect
       style="fill:#1d1d1b;fill-opacity:1;stroke:#1d1d1b;stroke-width:0.3;stroke-linecap:square;stroke-dasharray:none"
       id="rect1848-8"
       width="10"
       height="2"
       x="25"
       y="43" />
    <path
       style="fill:none;stroke:#000000;stroke-width:0.3;stroke-linecap:square;stroke-linejoin:miter;stroke-dasharray:none;stroke-opacity:1;marker-end:url(#Dot)"
       d="M 65,40 V 30"
       id="path1792-3-0"
       sodipodi:nodetypes="cc" />
    <path
       style="fill:none;stroke:#000000;stroke-width:0.3;stroke-linecap:square;stroke-linejoin:miter;stroke-dasharray:none;stroke-opacity:1;marker-start:url(#Dot)"
       d="M 65,55 V 45"
       id="path1792-3-2-1"
       sodipodi:nodetypes="cc" />
    <rect
       style="fill:#1d1d1b;fill-opacity:1;stroke:#1d1d1b;stroke-width:0.3;stroke-linecap:square;stroke-dasharray:none"
       id="rect1848-2"
       width="10"
       height="2"
       x="60"
       y="40" />
    <rect
       style="fill:#1d1d1b;fill-opacity:1;stroke:#1d1d1b;stroke-width:0.3;stroke-linecap:square;stroke-dasharray:none"
       id="rect1848-8-0"
       width="10"
       height="2"
       x="60"
       y="43" />
    <rect
       style="fill:none;fill-opacity:1;stroke:#1d1d1b;stroke-width:0.3;stroke-linecap:square;stroke-dasharray:none"
       id="rect2483"
       width="15"
       height="4"
       x="40"
       y="28" />
    <rect
       style="fill:none;fill-opacity:1;stroke:#1d1d1b;stroke-width:0.3;stroke-linecap:square;stroke-dasharray:none"
       id="rect2483-2"
       width="15"
       height="4"
       x="35"
       y="-92"
       transform="rotate(90)" />
    <text
       xml:space="preserve"
       style="font-size:3.52778px;line-height:1.25;font-family:sans-serif;stroke-width:0.264583"
       x="6.2396374"
       y="34"
       id="text2977"><tspan
         sodipodi:role="line"
         id="tspan2975"
         style="font-size:3.52778px;stroke-width:0.264583"
         x="6.2396374"
         y="34">L</tspan></text>
    <text
       xml:space="preserve"
       style="font-size:3.52778px;line-height:1.25;font-family:sans-serif;stroke-width:0.264583"
       x="15.45785"
       y="44.179878"
       id="text2977-4"><tspan
         sodipodi:role="line"
         id="tspan2975-1"
         style="font-size:3.52778px;stroke-width:0.264583"
         x="15.45785"
         y="44.179878">O<tspan
   style="font-size:65%;baseline-shift:sub"
   id="tspan4405">1</tspan></tspan></text>
    <path
       style="fill:none;stroke:#1d1d1b;stroke-width:0.3;stroke-linecap:square;stroke-dasharray:none;marker-end:url(#TriangleStart-1-0-8)"
       id="path792-2-2-6"
       sodipodi:type="arc"
       sodipodi:cx="79.323006"
       sodipodi:cy="43.349998"
       sodipodi:rx="4"
       sodipodi:ry="4"
       sodipodi:start="2.2310106"
       sodipodi:end="0.86817166"
       sodipodi:arc-type="arc"
       d="m 76.869861,46.509442 a 4,4 0 0 1 -1.34442,-4.415828 4,4 0 0 1 3.71275,-2.742716 4,4 0 0 1 3.825697,2.582837 4,4 0 0 1 -1.155991,4.468858"
       sodipodi:open="true" />
    <text
       xml:space="preserve"
       style="font-size:3.52778px;line-height:1.25;font-family:sans-serif;stroke-width:0.264583"
       x="77.247322"
       y="44.168411"
       id="text2977-4-24"><tspan
         sodipodi:role="line"
         id="tspan2975-1-7"
         style="font-size:3.52778px;stroke-width:0.264583"
         x="77.247322"
         y="44.168411">O<tspan
   style="font-size:65%;baseline-shift:sub"
   id="tspan4405-8">3</tspan></tspan></text>
    <path
       style="fill:none;stroke:#1d1d1b;stroke-width:0.3;stroke-linecap:square;stroke-dasharray:none;marker-end:url(#TriangleStart-1-0-3)"
       id="path792-2-2-0"
       sodipodi:type="arc"
       sodipodi:cx="47.892242"
       sodipodi:cy="43.349998"
       sodipodi:rx="4"
       sodipodi:ry="4"
       sodipodi:start="2.2310106"
       sodipodi:end="0.86817166"
       sodipodi:arc-type="arc"
       d="m 45.439098,46.509442 a 4,4 0 0 1 -1.34442,-4.415828 4,4 0 0 1 3.71275,-2.742716 4,4 0 0 1 3.825697,2.582837 4,4 0 0 1 -1.155991,4.468858"
       sodipodi:open="true" />
    <text
       xml:space="preserve"
       style="font-size:3.52778px;line-height:1.25;font-family:sans-serif;stroke-width:0.264583"
       x="45.810822"
       y="44.179878"
       id="text2977-4-0"><tspan
         sodipodi:role="line"
         id="tspan2975-1-9"
         style="font-size:3.52778px;stroke-width:0.264583"
         x="45.810822"
         y="44.179878">O<tspan
   style="font-size:65%;baseline-shift:sub"
   id="tspan4405-1">2</tspan></tspan></text>
    <text
       xml:space="preserve"
       style="font-size:3.52778px;line-height:1.25;font-family:sans-serif;stroke-width:0.264583"
       x="16.185797"
       y="28"
       id="text2977-62"><tspan
         sodipodi:role="line"
         id="tspan2975-7"
         style="font-size:3.52778px;stroke-width:0.264583"
         x="16.185797"
         y="28">i<tspan
   style="font-size:65%;baseline-shift:sub"
   id="tspan3755">L</tspan></tspan></text>
    <text
       xml:space="preserve"
       style="font-size:3.52778px;line-height:1.25;font-family:sans-serif;stroke-width:0.264583"
       x="31"
       y="35.090202"
       id="text2977-62-6"><tspan
         sodipodi:role="line"
         id="tspan2975-7-5"
         style="font-size:3.52778px;stroke-width:0.264583"
         x="31"
         y="35.090202">i<tspan
   style="font-size:65%;baseline-shift:sub"
   id="tspan3755-4">C1</tspan></tspan></text>
    <text
       xml:space="preserve"
       style="font-size:3.52778px;line-height:1.25;font-family:sans-serif;stroke-width:0.264583"
       x="38"
       y="43.269886"
       id="text2977-62-6-8"><tspan
         sodipodi:role="line"
         id="tspan2975-7-5-1"
         style="font-size:3.52778px;stroke-width:0.264583"
         x="38"
         y="43.269886">U<tspan
   style="font-size:65%;baseline-shift:sub"
   id="tspan3755-4-1">C1</tspan></tspan></text>
    <text
       xml:space="preserve"
       style="font-size:3.52778px;line-height:1.25;font-family:sans-serif;stroke-width:0.264583"
       x="46.258221"
       y="27.587502"
       id="text2977-2"><tspan
         sodipodi:role="line"
         id="tspan2975-6"
         style="font-size:3.52778px;stroke-width:0.264583"
         x="46.258221"
         y="27.587502">R</tspan></text>
    <text
       xml:space="preserve"
       style="font-size:3.52778px;line-height:1.25;font-family:sans-serif;stroke-width:0.264583"
       x="86.661079"
       y="34.518833"
       id="text2977-2-2"><tspan
         sodipodi:role="line"
         id="tspan2975-6-4"
         style="font-size:3.52778px;stroke-width:0.264583"
         x="86.661079"
         y="34.518833">N</tspan></text>
    <text
       xml:space="preserve"
       style="font-size:3.52778px;line-height:1.25;font-family:sans-serif;stroke-width:0.264583"
       x="25.784805"
       y="38.554111"
       id="text2977-6"><tspan
         sodipodi:role="line"
         id="tspan2975-9"
         style="font-size:3.52778px;stroke-width:0.264583"
         x="25.784805"
         y="38.554111">C<tspan
   style="font-size:65%;baseline-shift:sub"
   id="tspan3058">1</tspan></tspan></text>
    <text
       xml:space="preserve"
       style="font-size:3.52778px;line-height:1.25;font-family:sans-serif;stroke-width:0.264583"
       x="60.578053"
       y="38.294445"
       id="text2977-6-2"><tspan
         sodipodi:role="line"
         id="tspan2975-9-2"
         style="font-size:3.52778px;stroke-width:0.264583"
         x="60.578053"
         y="38.294445">C<tspan
   style="font-size:65%;baseline-shift:sub"
   id="tspan3058-0">2</tspan></tspan></text>
    <path
       style="fill:#000000;fill-opacity:1;stroke:#000000;stroke-width:0.264583px;stroke-linecap:butt;stroke-linejoin:miter;stroke-opacity:1"
       d="M 87.999999,50 89.999998,47.999999 91.999999,50 h -4"
       id="path2979" />
    <path
       style="fill:none;stroke:#000000;stroke-width:0.3;stroke-linecap:square;stroke-linejoin:miter;stroke-dasharray:none;stroke-opacity:1;marker-end:url(#TriangleStart-1)"
       d="M 37,49 V 37"
       id="path1792-7-3-1"
       sodipodi:nodetypes="cc"
       inkscape:transform-center-x="-1.9975975"
       inkscape:transform-center-y="-0.066145833" />
    <text
       xml:space="preserve"
       style="font-size:3.52778px;line-height:1.25;font-family:sans-serif;stroke-width:0.264583"
       x="53.157944"
       y="43.269886"
       id="text2977-62-6-8-4"><tspan
         sodipodi:role="line"
         id="tspan2975-7-5-1-0"
         style="font-size:3.52778px;stroke-width:0.264583"
         x="53.157944"
         y="43.269886">U<tspan
   style="font-size:65%;baseline-shift:sub"
   id="tspan3755-4-1-1">C2</tspan></tspan></text>
    <text
       xml:space="preserve"
       style="font-size:3.52778px;line-height:1.25;font-family:sans-serif;stroke-width:0.264583"
       x="46.029305"
       y="37.518833"
       id="text2977-62-6-8-4-9"><tspan
         sodipodi:role="line"
         id="tspan2975-7-5-1-0-9"
         style="font-size:3.52778px;stroke-width:0.264583"
         x="46.029305"
         y="37.518833">U<tspan
   style="font-size:65%;baseline-shift:sub"
   id="tspan3755-4-1-1-9">R</tspan></tspan></text>
    <path
       style="fill:none;stroke:#000000;stroke-width:0.3;stroke-linecap:square;stroke-linejoin:miter;stroke-dasharray:none;stroke-opacity:1;marker-end:url(#TriangleStart-1-4)"
       d="M 59,49 V 37"
       id="path1792-7-3-1-7"
       sodipodi:nodetypes="cc"
       inkscape:transform-center-x="-1.9975975"
       inkscape:transform-center-y="-0.066145833" />
    <path
       style="fill:none;stroke:#000000;stroke-width:0.3;stroke-linecap:square;stroke-linejoin:miter;stroke-dasharray:none;stroke-opacity:1;marker-end:url(#TriangleStart-1-4-6)"
       d="M 54,34 H 42"
       id="path1792-7-3-1-7-4"
       sodipodi:nodetypes="cc"
       inkscape:transform-center-x="-1.9975975"
       inkscape:transform-center-y="-0.066145833" />
    <text
       xml:space="preserve"
       style="font-size:3.52778px;line-height:1.25;font-family:sans-serif;stroke-width:0.264583"
       x="94.883331"
       y="44"
       id="text2977-62-6-8-4-2"><tspan
         sodipodi:role="line"
         id="tspan2975-7-5-1-0-2"
         style="font-size:3.52778px;stroke-width:0.264583"
         x="94.883331"
         y="44">U<tspan
   style="font-size:65%;baseline-shift:sub"
   id="tspan3755-4-1-1-4">N</tspan></tspan></text>
    <path
       style="fill:none;stroke:#000000;stroke-width:0.3;stroke-linecap:square;stroke-linejoin:miter;stroke-dasharray:none;stroke-opacity:1;marker-end:url(#TriangleStart-1-4-5)"
       d="M 93.883332,49 V 37"
       id="path1792-7-3-1-7-5"
       sodipodi:nodetypes="cc"
       inkscape:transform-center-x="-1.9975975"
       inkscape:transform-center-y="-0.066145833" />
    <text
       xml:space="preserve"
       style="font-size:3.52778px;line-height:1.25;font-family:sans-serif;stroke-width:0.264583"
       x="-1.7230463"
       y="43.281349"
       id="text2977-62-6-8-2"><tspan
         sodipodi:role="line"
         id="tspan2975-7-5-1-2"
         style="font-size:3.52778px;stroke-width:0.264583"
         x="-1.7230463"
         y="43.281349">U<tspan
   style="font-size:65%;baseline-shift:sub"
   id="tspan3755-4-1-6">L</tspan></tspan></text>
    <path
       style="fill:none;stroke:#000000;stroke-width:0.3;stroke-linecap:square;stroke-linejoin:miter;stroke-dasharray:none;stroke-opacity:1;marker-end:url(#TriangleStart-1-0)"
       d="M 3,49 V 37"
       id="path1792-7-3-1-3"
       sodipodi:nodetypes="cc"
       inkscape:transform-center-x="-1.9975975"
       inkscape:transform-center-y="-0.066145833" />
    <path
       style="fill:none;stroke:#000000;stroke-width:0.3;stroke-linecap:square;stroke-linejoin:miter;stroke-dasharray:none;stroke-opacity:1;marker-end:url(#TriangleStart-0)"
       d="m 36,30 v 0"
       id="path1792-7-3-6"
       sodipodi:nodetypes="cc" />
    <path
       style="fill:none;stroke:#000000;stroke-width:0.3;stroke-linecap:square;stroke-linejoin:miter;stroke-dasharray:none;stroke-opacity:1;marker-end:url(#TriangleStart-0-6)"
       d="m 30,32 v 2"
       id="path1792-7-3-6-6"
       sodipodi:nodetypes="cc" />
    <text
       xml:space="preserve"
       style="font-size:3.52778px;line-height:1.25;font-family:sans-serif;stroke-width:0.264583"
       x="66"
       y="35.090202"
       id="text2977-62-6-1"><tspan
         sodipodi:role="line"
         id="tspan2975-7-5-3"
         style="font-size:3.52778px;stroke-width:0.264583"
         x="66"
         y="35.090202">i<tspan
   style="font-size:65%;baseline-shift:sub"
   id="tspan3755-4-7">C2</tspan></tspan></text>
    <path
       style="fill:none;stroke:#000000;stroke-width:0.3;stroke-linecap:square;stroke-linejoin:miter;stroke-dasharray:none;stroke-opacity:1;marker-end:url(#TriangleStart-0-6-7)"
       d="m 65,32 v 2"
       id="path1792-7-3-6-6-4"
       sodipodi:nodetypes="cc" />
    <text
       xml:space="preserve"
       style="font-size:3.52778px;line-height:1.25;font-family:sans-serif;stroke-width:0.264583"
       x="35.89373"
       y="28"
       id="text2977-62-1"><tspan
         sodipodi:role="line"
         id="tspan2975-7-3"
         style="font-size:3.52778px;stroke-width:0.264583"
         x="35.89373"
         y="28">i<tspan
   style="font-size:65%;baseline-shift:sub"
   id="tspan3755-8" /></tspan></text>
    <path
       style="fill:none;stroke:#000000;stroke-width:0.3;stroke-linecap:square;stroke-linejoin:miter;stroke-dasharray:none;stroke-opacity:1;marker-end:url(#TriangleStart-0-3)"
       d="m 72,30 v 0"
       id="path1792-7-3-6-9"
       sodipodi:nodetypes="cc" />
    <text
       xml:space="preserve"
       style="font-size:3.52778px;line-height:1.25;font-family:sans-serif;stroke-width:0.264583"
       x="71.301598"
       y="28.25"
       id="text2977-62-1-2"><tspan
         sodipodi:role="line"
         id="tspan2975-7-3-5"
         style="font-size:3.52778px;stroke-width:0.264583"
         x="71.301598"
         y="28.25">i<tspan
   style="font-size:65%;baseline-shift:sub"
   id="tspan5262">r</tspan></tspan></text>
    <text
       xml:space="preserve"
       style="font-size:3.52778px;line-height:1.25;font-family:sans-serif;stroke-width:0.264583"
       x="28"
       y="28"
       id="text2977-4-2"><tspan
         sodipodi:role="line"
         id="tspan2975-1-0"
         style="font-size:3.52778px;stroke-width:0.264583"
         x="28"
         y="28">W<tspan
   style="font-size:65%;baseline-shift:sub"
   id="tspan4405-4">1</tspan></tspan></text>
    <text
       xml:space="preserve"
       style="font-size:3.52778px;line-height:1.25;font-family:sans-serif;stroke-width:0.264583"
       x="63.526775"
       y="27.294443"
       id="text2977-4-2-7"><tspan
         sodipodi:role="line"
         id="tspan2975-1-0-0"
         style="font-size:3.52778px;stroke-width:0.264583"
         x="63.526775"
         y="27.294443">W<tspan
   style="font-size:65%;baseline-shift:sub"
   id="tspan4405-4-0">2</tspan></tspan></text>
  </g>
</svg>
